4 Datentransformation – Einführung in R
…
Die uns ausgegebene tibble hat nun also nicht mehr 1704, sondern nur noch 12 Zeilen. Mit != könnten wir hingegen alle Beobachtungen, die sich nicht auf Deutschland beziehen, auswählen und so einen neuen data frame mit 1692 Zeilen erzeugen.

gapminder |> 
  filter(country != "Germany")

# A tibble: 1,692 × 6
   country     continent  year lifeExp      pop gdpPercap
   <fct>       <fct>     <int>   <dbl>    <int>     <dbl>
 1 Afghanistan Asia       1952    28.8  8425333      779.
 2 Afghanistan Asia       1957    30.3  9240934      821.
 3 Afghanistan Asia       1962    32.0 10267083      853.
 4 Afghanistan Asia       1967    34.0 11537966      836.
 5 Afghanistan Asia       1972    36.1 13079460      740.
 6 Afghanistan Asia       1977    38.4 14880372      786.
 7 Afghanistan Asia       1982    39.9 12881816      978.
 8 Afghanistan Asia       1987    40.8 13867957      852.
 9 Afghanistan Asia       1992    41.7 16317921      649.
10 Afghanistan Asia       1997    41.8 22227415      635.
# ℹ 1,682 more rows

Mit einem weiteren Operator, %in%, können wir mehrere Werte auswählen, nach deren Beobachtungen wir filtern möchten.

gapminder |> 
  filter(country %in% c("Belgium", "France", "Germany"))

# A tibble: 36 × 6
   country continent  year lifeExp      pop gdpPercap
   <fct>   <fct>     <int>   <dbl>    <int>     <dbl>
 1 Belgium Europe     1952    68    8730405     8343.
 2 Belgium Europe     1957    69.2  8989111     9715.
 3 Belgium Europe     1962    70.2  9218400    10991.
 4 Belgium Europe     1967    70.9  9556500    13149.
 5 Belgium Europe     1972    71.4  9709100    16672.
 6 Belgium Europe     1977    72.8  9821800    19118.
 7 Belgium Europe     1982    73.9  9856303    20980.
 8 Belgium Europe     1987    75.4  9870200    22526.
 9 Belgium Europe     1992    76.5 10045622    25576.
10 Belgium Europe     1997    77.5 10199787    27561.
# ℹ 26 more rows

Bei numerischen Variablen können wir zudem mit den entsprechenden Operatoren gleichermaßen unsere Auswahl einschränken. Möchten wir nur Fälle seit 1990 auswählen, geben wir die Anweisung, dass year größer-gleich (>=) 1990 sein soll.

gapminder |> 
  filter(year >= 1990)

# A tibble: 568 × 6
   country     continent  year lifeExp      pop gdpPercap
   <fct>       <fct>     <int>   <dbl>    <int>     <dbl>
 1 Afghanistan Asia       1992    41.7 16317921      649.
 2 Afghanistan Asia       1997    41.8 22227415      635.
 3 Afghanistan Asia       2002    42.1 25268405      727.
 4 Afghanistan Asia       2007    43.8 31889923      975.
 5 Albania     Europe     1992    71.6  3326498     2497.
 6 Albania     Europe     1997    73.0  3428038     3193.
 7 Albania     Europe     2002    75.7  3508512     4604.
 8 Albania     Europe     2007    76.4  3600523     5937.
 9 Algeria     Africa     1992    67.7 26298373     5023.
10 Algeria     Africa     1997    69.2 29072015     4797.
# ℹ 558 more rows

Wenn wir den Zeitraum nicht nur nach unten, sondern auch nach oben begrenzen möchten, können wir mithilfe des &-Operators einfach zwei Bedingungen angeben, zum Beispiel dass year größer-gleich (>=) 1990 und zugleich kleiner-gleich (<=) 2000 sein soll.

gapminder |> 
  filter(year >= 1990 & year <= 2000)

# A tibble: 284 × 6
   country     continent  year lifeExp      pop gdpPercap
   <fct>       <fct>     <int>   <dbl>    <int>     <dbl>
 1 Afghanistan Asia       1992    41.7 16317921      649.
 2 Afghanistan Asia       1997    41.8 22227415      635.
 3 Albania     Europe     1992    71.6  3326498     2497.
 4 Albania     Europe     1997    73.0  3428038     3193.
 5 Algeria     Africa     1992    67.7 26298373     5023.
 6 Algeria     Africa     1997    69.2 29072015     4797.
 7 Angola      Africa     1992    40.6  8735988     2628.
 8 Angola      Africa     1997    41.0  9875024     2277.
 9 Argentina   Americas   1992    71.9 33958947     9308.
10 Argentina   Americas   1997    73.3 36203463    10967.
# ℹ 274 more rows

Um einfacheren Code hinsichtlich einer solchen Spanne numerischer Werte zu schreiben, können wir die Hilfsfunktion between() nutzen. Sie kommt innerhalb von filter() zum Einsatz und benötigt lediglich den Namen der Variable, nach der wir filtern möchten, sowie den niedrigsten und höchsten gewünschten Wert. Das Ergebnis ist dasselbe wie jenes der zwei mittels & verknüpften Bedingungen.

gapminder |> 
  filter(between(year, 1990, 2000))

# A tibble: 284 × 6
   country     continent  year lifeExp      pop gdpPercap
   <fct>       <fct>     <int>   <dbl>    <int>     <dbl>
 1 Afghanistan Asia       1992    41.7 16317921      649.
 2 Afghanistan Asia       1997    41.8 22227415      635.
 3 Albania     Europe     1992    71.6  3326498     2497.
 4 Albania     Europe     1997    73.0  3428038     3193.
 5 Algeria     Africa     1992    67.7 26298373     5023.
 6 Algeria     Africa     1997    69.2 29072015     4797.
 7 Angola      Africa     1992    40.6  8735988     2628.
 8 Angola      Africa     1997    41.0  9875024     2277.
 9 Argentina   Americas   1992    71.9 33958947     9308.
10 Argentina   Americas   1997    73.3 36203463    10967.
# ℹ 274 more rows
…
# A tibble: 4 × 6
  country continent  year lifeExp      pop gdpPercap
  <fct>   <fct>     <int>   <dbl>    <int>     <dbl>
1 Germany Europe     1992    76.1 80597764    26505.
2 Germany Europe     1997    77.3 82011073    27789.
3 Germany Europe     2002    78.7 82350671    30036.
4 Germany Europe     2007    79.4 82400996    32170.

Mit | wird die Tabelle hingegen entsprechend länger, denn nun werden alle Zeilen ausgewählt, die Deutschland repräsentieren oder deren Jahr mindestens 1990 beträgt.

gapminder |> 
  filter(country == "Germany" | year >= 1990)

# A tibble: 576 × 6
   country     continent  year lifeExp      pop gdpPercap
   <fct>       <fct>     <int>   <dbl>    <int>     <dbl>
 1 Afghanistan Asia       1992    41.7 16317921      649.
 2 Afghanistan Asia       1997    41.8 22227415      635.
 3 Afghanistan Asia       2002    42.1 25268405      727.
 4 Afghanistan Asia       2007    43.8 31889923      975.
 5 Albania     Europe     1992    71.6  3326498     2497.
 6 Albania     Europe     1997    73.0  3428038     3193.
 7 Albania     Europe     2002    75.7  3508512     4604.
 8 Albania     Europe     2007    76.4  3600523     5937.
 9 Algeria     Africa     1992    67.7 26298373     5023.
10 Algeria     Africa     1997    69.2 29072015     4797.
# ℹ 566 more rows
…
4.3.5.2 Mit Konstanten rechnen

Oft ist es nötig, dass wir die Werte bestimmter Variablen transformieren möchten, zum Beispiel um andere Maßeinheiten zu nutzen. Wie bei der Arbeit mit Vektoren (Kapitel 3.5.1) können wir innerhalb von mutate() dafür Konstanten nutzen. Möchten wir in der gapminder-Tabelle etwa eine neue Variable (pop_mn) auf Basis einer bestehenden Variable (pop) berechnen, die die Bevölkerung in Millionen angibt, können wir die Ergebnisse der Berechnung pop / 1000000 (bzw. pop / 1e06) ebenso einer neuen Variable zuweisen.

gapminder |> 
  mutate(pop_mn = pop / 1000000)

# A tibble: 1,704 × 7
   country     continent  year lifeExp      pop gdpPercap pop_mn
   <fct>       <fct>     <int>   <dbl>    <int>     <dbl>  <dbl>
 1 Afghanistan Asia       1952    28.8  8425333      779.   8.43
 2 Afghanistan Asia       1957    30.3  9240934      821.   9.24
 3 Afghanistan Asia       1962    32.0 10267083      853.  10.3 
 4 Afghanistan Asia       1967    34.0 11537966      836.  11.5 
 5 Afghanistan Asia       1972    36.1 13079460      740.  13.1 
 6 Afghanistan Asia       1977    38.4 14880372      786.  14.9 
 7 Afghanistan Asia       1982    39.9 12881816      978.  12.9 
 8 Afghanistan Asia       1987    40.8 13867957      852.  13.9 
 9 Afghanistan Asia       1992    41.7 16317921      649.  16.3 
10 Afghanistan Asia       1997    41.8 22227415      635.  22.2 
# ℹ 1,694 more rows
…
[1] 99 99  3  4  5

Derartige Transformationen sind nützlich, wenn wir zum Beispiel Gruppen bilden möchten (Kapitel 4.4) und dafür eine neue Variable benötigen. Nehmen wir hierfür an, wir möchten die Lebenserwartung innerhalb Europas vergleichen und sind insbesondere im Vergleich von Deutschland mit dem europäischen Durchschnitt außerhalb Deutschlands interessiert. Hierfür müssen wir nur if_else() innerhalb von mutate() nutzen, indem wir eine neue Variable is_germany erzeugen.

gapminder |> 
  filter(continent == "Europe", year == 2007) |> # Auswählen europäischer Länder im Jahr 2007
  select(country, lifeExp) |> 
  mutate(is_germany = if_else(country == "Germany", # Angeben der Bedingung 
                              true = TRUE, # Was soll bei erfüllter Bedingung passieren?
                              false = FALSE)) |> # Was soll bei unerfüllter Bedingung passieren?
  arrange(desc(is_germany)) # Aus Platzgründen: Absteigend nach is_germany ordnen

# A tibble: 30 × 3
   country                lifeExp is_germany
   <fct>                    <dbl> <lgl>     
 1 Germany                   79.4 TRUE      
 2 Albania                   76.4 FALSE     
 3 Austria                   79.8 FALSE     
 4 Belgium                   79.4 FALSE     
 5 Bosnia and Herzegovina    74.9 FALSE     
 6 Bulgaria                  73.0 FALSE     
 7 Croatia                   75.7 FALSE     
 8 Czech Republic            76.5 FALSE     
 9 Denmark                   78.3 FALSE     
10 Finland                   79.3 FALSE     
# ℹ 20 more rows
…
Der output enthält mit # Groups:   continent [5] den Hinweis, dass es sich nicht nur um eine tibble, sondern um eine gruppierte tibble handelt. Für jeden der fünf continent-Werte ist also eine Gruppe erzeugt worden. Einmal mit group_by() erzeugt, erfolgt jede weitere Berechnung auf Basis der Gruppen. (Das heißt, dass hier mit slice_head(n = 3) für jede Gruppe die obersten drei Zeilen ausgewählt werden, was in der Summe 3 * 5 = 15 Zeilen bedeutet.)

Gruppen können wir nicht nur auf Basis einer, sondern auch mehrerer Variablen bilden. Statt nur continent, können wir auch continent (5 Gruppen) und year(12 Gruppen) heranziehen, was also 60 Gruppen bedeutet, wie aus unserem output hervorgeht.

gapminder |> 
  group_by(continent, year) |> # Gruppen auf Basis von continent und year bilden
  slice_head(n = 3) # Aus Platzgründen: Nur die obersten drei Zeilen (diesmal pro Gruppe, also 3 * 5 * 12 = 180) anzeigen

# A tibble: 168 × 6
# Groups:   continent, year [60]
   country continent  year lifeExp      pop gdpPercap
   <fct>   <fct>     <int>   <dbl>    <int>     <dbl>
 1 Algeria Africa     1952    43.1  9279525     2449.
 2 Angola  Africa     1952    30.0  4232095     3521.
 3 Benin   Africa     1952    38.2  1738315     1063.
 4 Algeria Africa     1957    45.7 10270856     3014.
 5 Angola  Africa     1957    32.0  4561361     3828.
 6 Benin   Africa     1957    40.4  1925173      960.
 7 Algeria Africa     1962    48.3 11000948     2551.
 8 Angola  Africa     1962    34    4826015     4269.
 9 Benin   Africa     1962    42.6  2151895      949.
10 Algeria Africa     1967    51.4 12760499     3247.
# ℹ 158 more rows
…
Zugleich können wir immer feinere Gruppen bilden, indem wir wie zuvor weitere Gruppierungsvariablen hinzufügen.

gapminder |> 
  group_by(continent, year) |> # Gruppen auf Basis von continent und year bilden
  summarize(mean_life_exp = round(mean(lifeExp)), # Gerundeten Mittelwert von lifeExp berechnen und mean_life_exp nennen
            sd_life_exp = round(sd(lifeExp))) # Gerundete Standardabweichung von lifeExp berechnen und sd_life_exp nennen 

# A tibble: 60 × 4
# Groups:   continent [5]
   continent  year mean_life_exp sd_life_exp
   <fct>     <int>         <dbl>       <dbl>
 1 Africa     1952            39           5
 2 Africa     1957            41           6
 3 Africa     1962            43           6
 4 Africa     1967            45           6
 5 Africa     1972            47           6
 6 Africa     1977            50           7
 7 Africa     1982            52           7
 8 Africa     1987            53           8
 9 Africa     1992            54           9
10 Africa     1997            54           9
# ℹ 50 more rows

Wenn immer wir summary statistics berechnen, ist es außerdem ratsam, anzugeben, auf wieviele Beobachtungen sich eine Statistik stützt. Mit n() können wir dies für jede Gruppe berechnen.

gapminder |> 
  group_by(continent, year) |> # Gruppen auf Basis von continent und year bilden
  summarize(mean_life_exp = round(mean(lifeExp)), # Gerundeten Mittelwert von lifeExp berechnen und mean_life_exp nennen
            sd_life_exp = round(sd(lifeExp)), # Gerundete Standardabweichung von lifeExp berechnen und sd_life_exp nennen 
            obs = n()) # Zahl der Beobachtungen berechnen und obs nennen

# A tibble: 60 × 5
# Groups:   continent [5]
   continent  year mean_life_exp sd_life_exp   obs
   <fct>     <int>         <dbl>       <dbl> <int>
 1 Africa     1952            39           5    52
 2 Africa     1957            41           6    52
 3 Africa     1962            43           6    52
 4 Africa     1967            45           6    52
 5 Africa     1972            47           6    52
 6 Africa     1977            50           7    52
 7 Africa     1982            52           7    52
 8 Africa     1987            53           8    52
 9 Africa     1992            54           9    52
10 Africa     1997            54           9    52
# ℹ 50 more rows
…
