6 Datenimport und -export – Einführung in R
…
Das Tabellenblatt iris in sample.xlsx (Chugh 2023).

6.3.2 Importieren

Die Funktion, um den Inhalt einer Excel-Datei (XLS oder XLSX) einzulesen, heißt read_excel(). Der Parameter path benötigt (ebenso wie file in read_csv()) einen lokalen Dateipfad oder eine Internetadresse. Wenn wir nichts weiter einlesen, importiert R den Inhalt des ersten Tabellenblattes als tibble.

bank_full <- read_excel(path = "./files/sample.xlsx") # Angabe des Dateipfads
bank_full

# A tibble: 45,211 × 17
     age job       marital education default balance housing loan  contact   day
   <dbl> <chr>     <chr>   <chr>     <chr>     <dbl> <chr>   <chr> <chr>   <dbl>
 1    58 manageme… married tertiary  no         2143 yes     no    unknown     5
 2    44 technici… single  secondary no           29 yes     no    unknown     5
 3    33 entrepre… married secondary no            2 yes     yes   unknown     5
 4    47 blue-col… married unknown   no         1506 yes     no    unknown     5
 5    33 unknown   single  unknown   no            1 no      no    unknown     5
 6    35 manageme… married tertiary  no          231 yes     no    unknown     5
 7    28 manageme… single  tertiary  no          447 yes     yes   unknown     5
 8    42 entrepre… divorc… tertiary  yes           2 yes     no    unknown     5
 9    58 retired   married primary   no          121 yes     no    unknown     5
10    43 technici… single  secondary no          593 yes     no    unknown     5
# ℹ 45,201 more rows
# ℹ 7 more variables: month <chr>, duration <dbl>, campaign <dbl>, pdays <dbl>,
#   previous <dbl>, poutcome <chr>, y <chr>

6.3.2.1 Auswahl eines bestimmten Tabellenblattes

Wenn wir nicht das erste, sondern das zweite Tabellenblatt (iris) importieren möchten, nutzen wir den Parameter sheet. Wir können ihm entweder den Namen des Tabellenblattes…

iris <- read_excel(path = "./files/sample.xlsx",
                   sheet = "iris") # Auswahl des Tabellenblatts anhand des Namens
iris

# A tibble: 150 × 6
      Id SepalLengthCm SepalWidthCm PetalLengthCm PetalWidthCm Species    
   <dbl>         <dbl>        <dbl>         <dbl>        <dbl> <chr>      
 1     1           5.1          3.5           1.4          0.2 Iris-setosa
 2     2           4.9          3             1.4          0.2 Iris-setosa
 3     3           4.7          3.2           1.3          0.2 Iris-setosa
 4     4           4.6          3.1           1.5          0.2 Iris-setosa
 5     5           5            3.6           1.4          0.2 Iris-setosa
 6     6           5.4          3.9           1.7          0.4 Iris-setosa
 7     7           4.6          3.4           1.4          0.3 Iris-setosa
 8     8           5            3.4           1.5          0.2 Iris-setosa
 9     9           4.4          2.9           1.4          0.2 Iris-setosa
10    10           4.9          3.1           1.5          0.1 Iris-setosa
# ℹ 140 more rows

…oder dessen Position angeben, um die jeweilige Tabelle zu importieren.

iris <- read_excel(path = "./files/sample.xlsx",
                   sheet = 2) # Auswahl des Tabellenblatts anhand der Position
iris

# A tibble: 150 × 6
      Id SepalLengthCm SepalWidthCm PetalLengthCm PetalWidthCm Species    
   <dbl>         <dbl>        <dbl>         <dbl>        <dbl> <chr>      
 1     1           5.1          3.5           1.4          0.2 Iris-setosa
 2     2           4.9          3             1.4          0.2 Iris-setosa
 3     3           4.7          3.2           1.3          0.2 Iris-setosa
 4     4           4.6          3.1           1.5          0.2 Iris-setosa
 5     5           5            3.6           1.4          0.2 Iris-setosa
 6     6           5.4          3.9           1.7          0.4 Iris-setosa
 7     7           4.6          3.4           1.4          0.3 Iris-setosa
 8     8           5            3.4           1.5          0.2 Iris-setosa
 9     9           4.4          2.9           1.4          0.2 Iris-setosa
10    10           4.9          3.1           1.5          0.1 Iris-setosa
# ℹ 140 more rows
…
Um zu verhindern, dass die Werte der ersten eingelesenen Zeile als Spaltennamen importiert werden, müssen wir in solchen Fällen jedoch weitere Parameter heranziehen (Kapitel 6.3.2.7).

6.3.2.3 Einheitliche Spaltennamen

Anders als bank-full enthält iris Spaltennamen im sog. camel case (Kapitel 3.1.1). Um diese in snake case zu verwandeln, können wir wie zuvor clean_names() nutzen (Kapitel 6.2.2.1).

iris <- read_excel(path = "./files/sample.xlsx",
                   sheet = 2) |> 
  clean_names() # Spaltennamen: snake_case
iris

# A tibble: 150 × 6
      id sepal_length_cm sepal_width_cm petal_length_cm petal_width_cm species  
   <dbl>           <dbl>          <dbl>           <dbl>          <dbl> <chr>    
 1     1             5.1            3.5             1.4            0.2 Iris-set…
 2     2             4.9            3               1.4            0.2 Iris-set…
 3     3             4.7            3.2             1.3            0.2 Iris-set…
 4     4             4.6            3.1             1.5            0.2 Iris-set…
 5     5             5              3.6             1.4            0.2 Iris-set…
 6     6             5.4            3.9             1.7            0.4 Iris-set…
 7     7             4.6            3.4             1.4            0.3 Iris-set…
 8     8             5              3.4             1.5            0.2 Iris-set…
 9     9             4.4            2.9             1.4            0.2 Iris-set…
10    10             4.9            3.1             1.5            0.1 Iris-set…
# ℹ 140 more rows
…
Standardmäßig “rät” read_excel() bei jeder Spalte, um welchen Datentypen es sich handelt, ebenso wie read_csv(). Nicht immer ist read_excel()s Vermutung dabei richtig. Wenn wir deshalb Datentypen selbst angeben wollen, nutzen wir eine ähnliche, nicht aber die gleiche Schreibweise wie bei read_csv().

Stattdessen benötigt der Parameter col_types einen Vektor, der soviele Werte enthält, wie Spalten eingelesen werden sollen. Wir können hierbei aus uns bekannten Werten wie "logical", "numeric", "date", "text", "list", "skip" oder "guess" wählen8. "skip" überspringt dabei eine Spalte und liest den Inhalt nicht ein (ebenso wie col_skip() es bei read_csv() tut, Kapitel 6.2.2.3). Glücklicherweise sind die von uns bisher eingelesenen Tabellen bank_full und iris aber fehlerfrei.

6.3.2.6 Zeilen überspringen

Auch bei read_excel() gibt es die Möglichkeit, mithilfe des Parameters skip anzugeben, ob – und wenn ja, wieviele – Zeilen übersprungen werden sollen. Anders als bei read_csv() gilt diese Angabe bei read_excel() jedoch auch für die Kopfzeile, die oft die Spaltennamen enthält. Dadurch werden die *Werte der ersten Zeile ohne weitere Angaben als Spaltennamen verwendet**.

iris <- read_excel(path = "./files/sample.xlsx",
                   sheet = "iris",
                   skip = 2) # Erste zwei Zeilen überspringen
iris

# A tibble: 148 × 6
   `2.0` `4.9` `3.0` `1.4` `0.2` `Iris-setosa`
   <dbl> <dbl> <dbl> <dbl> <dbl> <chr>        
 1     3   4.7   3.2   1.3   0.2 Iris-setosa  
 2     4   4.6   3.1   1.5   0.2 Iris-setosa  
 3     5   5     3.6   1.4   0.2 Iris-setosa  
 4     6   5.4   3.9   1.7   0.4 Iris-setosa  
 5     7   4.6   3.4   1.4   0.3 Iris-setosa  
 6     8   5     3.4   1.5   0.2 Iris-setosa  
 7     9   4.4   2.9   1.4   0.2 Iris-setosa  
 8    10   4.9   3.1   1.5   0.1 Iris-setosa  
 9    11   5.4   3.7   1.5   0.2 Iris-setosa  
10    12   4.8   3.4   1.6   0.2 Iris-setosa  
# ℹ 138 more rows
…
iris <- read_excel(path = "./files/sample.xlsx",
                   sheet = "iris",
                   col_names = FALSE) # Keine Spaltennamen einlesen

New names:
• `` -> `...1`
• `` -> `...2`
• `` -> `...3`
• `` -> `...4`
• `` -> `...5`
• `` -> `...6`

iris

# A tibble: 151 × 6
   ...1  ...2          ...3         ...4          ...5         ...6       
   <chr> <chr>         <chr>        <chr>         <chr>        <chr>      
 1 Id    SepalLengthCm SepalWidthCm PetalLengthCm PetalWidthCm Species    
 2 1.0   5.1           3.5          1.4           0.2          Iris-setosa
 3 2.0   4.9           3.0          1.4           0.2          Iris-setosa
 4 3.0   4.7           3.2          1.3           0.2          Iris-setosa
 5 4.0   4.6           3.1          1.5           0.2          Iris-setosa
 6 5.0   5.0           3.6          1.4           0.2          Iris-setosa
 7 6.0   5.4           3.9          1.7           0.4          Iris-setosa
 8 7.0   4.6           3.4          1.4           0.3          Iris-setosa
 9 8.0   5.0           3.4          1.5           0.2          Iris-setosa
10 9.0   4.4           2.9          1.4           0.2          Iris-setosa
# ℹ 141 more rows

Damit eventuell vorhandene Spaltennamen aber nicht fälschlicherweise als erste Datenwerte eingelesen werden und deshalb die gesamten Spalten als character erkannt werden, muss in solchen Fällen mit skip = 1 dafür gesorgt werden, die erste Zeile zu überspringen. readxl vergibt dann automatisch fortlaufende Variablennamen wie ...1, ...2, ...3 usw.

iris <- read_excel(path = "./files/sample.xlsx",
                   sheet = "iris",
                   col_names = FALSE, # Keine Spaltennamen einlesen
                   skip = 1) # Erste Zeile überspringen
iris

# A tibble: 150 × 6
    ...1  ...2  ...3  ...4  ...5 ...6       
   <dbl> <dbl> <dbl> <dbl> <dbl> <chr>      
 1     1   5.1   3.5   1.4   0.2 Iris-setosa
 2     2   4.9   3     1.4   0.2 Iris-setosa
 3     3   4.7   3.2   1.3   0.2 Iris-setosa
 4     4   4.6   3.1   1.5   0.2 Iris-setosa
 5     5   5     3.6   1.4   0.2 Iris-setosa
 6     6   5.4   3.9   1.7   0.4 Iris-setosa
 7     7   4.6   3.4   1.4   0.3 Iris-setosa
 8     8   5     3.4   1.5   0.2 Iris-setosa
 9     9   4.4   2.9   1.4   0.2 Iris-setosa
10    10   4.9   3.1   1.5   0.1 Iris-setosa
# ℹ 140 more rows

6.3.2.8 Eigene Spaltennamen angeben

Wenn wir eine Tabelle mit automatisch erzeugten Variablennamen vermeiden wollen, können wir – genau wie zuvor bei der Nutzung von read_csv() – auch beim Einlesen dem Parameter col_names einen Vektor mit eigenen Namen geben.

iris <- read_excel(path = "./files/sample.xlsx",
                   sheet = "iris",
                   col_names = c("id", "sepal_length", "sepal_width", "petal_length", "petal_width", "species_name"), # Eigene Spaltennamen angeben
                   skip = 1)
iris

# A tibble: 150 × 6
      id sepal_length sepal_width petal_length petal_width species_name
   <dbl>        <dbl>       <dbl>        <dbl>       <dbl> <chr>       
 1     1          5.1         3.5          1.4         0.2 Iris-setosa 
 2     2          4.9         3            1.4         0.2 Iris-setosa 
 3     3          4.7         3.2          1.3         0.2 Iris-setosa 
 4     4          4.6         3.1          1.5         0.2 Iris-setosa 
 5     5          5           3.6          1.4         0.2 Iris-setosa 
 6     6          5.4         3.9          1.7         0.4 Iris-setosa 
 7     7          4.6         3.4          1.4         0.3 Iris-setosa 
 8     8          5           3.4          1.5         0.2 Iris-setosa 
 9     9          4.4         2.9          1.4         0.2 Iris-setosa 
10    10          4.9         3.1          1.5         0.1 Iris-setosa 
# ℹ 140 more rows
…
Um Daten zwischen Nutzer*innen von R zu teilen, kommt einem bestimmten Dateiformat eine besondere Bedeutung zu. Dieses Format ist RDS (R Data Structure). In diesem Format können wir einzelne Objekte exportieren, zum Beispiel data frames. Der Vorteil gegenüber anderen Exportformaten wie CSV oder XLSX liegt darin, dass das spezielle R-Format alle Metadaten mit exportiert. Das heißt, dass etwa alle Datentypen genauso erhalten bleiben, wie wir sie in unserer bisherigen R-Sitzung festgelegt haben. Beim Importieren einer zuvor erzeugten RDS-Datei müssen wir keine weiteren Angaben vornehmen.

Zum Exportieren eines R-Objekts nutzen wir die Funktion write_rds()9, der wir als Input x ein Objekt (hier unsere importierte iris-Tabelle) und als Dateipfad file einen Dateinamen mit der Endung .rds angeben. Auf diese Weise wird in unserem angegebenen Verzeichnis eine neue Datei iris.rds erzeugt.

iris <- read_excel(path = "./files/sample.xlsx",
                   sheet = "iris")
write_rds(x = iris,
          file = "./files/iris.rds")

Um dieselbe Datei zu importieren, nutzen wir read_rds()10.

iris <- read_rds(file = "./files/iris.rds")
iris

# A tibble: 150 × 6
      Id SepalLengthCm SepalWidthCm PetalLengthCm PetalWidthCm Species    
   <dbl>         <dbl>        <dbl>         <dbl>        <dbl> <chr>      
 1     1           5.1          3.5           1.4          0.2 Iris-setosa
 2     2           4.9          3             1.4          0.2 Iris-setosa
 3     3           4.7          3.2           1.3          0.2 Iris-setosa
 4     4           4.6          3.1           1.5          0.2 Iris-setosa
 5     5           5            3.6           1.4          0.2 Iris-setosa
 6     6           5.4          3.9           1.7          0.4 Iris-setosa
 7     7           4.6          3.4           1.4          0.3 Iris-setosa
 8     8           5            3.4           1.5          0.2 Iris-setosa
 9     9           4.4          2.9           1.4          0.2 Iris-setosa
10    10           4.9          3.1           1.5          0.1 Iris-setosa
# ℹ 140 more rows
…
