7 Datenbereinigung – Einführung in R
…
7.4 Übungsaufgaben

7.4.1 Variablen

7.4.1.1 Trennen

Betrachten Sie die durch tidyr mitgelieferte Tabelle billboard, welche US-Chartpositionen aus dem Jahr 2000 enthält. Stellen Sie sich die folgenden Fragen:

Welches Format hat die Tabelle? Ist sie weit oder lang?

Welche Prinzipien von tidy data werden (nicht) befolgt?

In einem weiteren Schritt trennen Sie die Variable date.entered in drei separate Variablen (year, month und day). Ihr Ergebnis (ohne die wk-Spalten) sollte so aussehen (beachten Sie auch die Variablentypen!):

# A tibble: 317 × 5
   artist         track                       y     m     d
   <chr>          <chr>                   <int> <int> <int>
 1 2 Pac          Baby Don't Cry (Keep...  2000     2    26
 2 2Ge+her        The Hardest Part Of ...  2000     9     2
 3 3 Doors Down   Kryptonite               2000     4     8
 4 3 Doors Down   Loser                    2000    10    21
 5 504 Boyz       Wobble Wobble            2000     4    15
 6 98^0           Give Me Just One Nig...  2000     8    19
 7 A*Teens        Dancing Queen            2000     7     8
 8 Aaliyah        I Don't Wanna            2000     1    29
 9 Aaliyah        Try Again                2000     3    18
10 Adams, Yolanda Open My Heart            2000     8    26
# ℹ 307 more rows
…
7.4.2 Tabellenorganisation

7.4.2.1 billboard

Verlängern Sie billboard so, dass die Wochenangaben in einer Variable week und die Platzierungen in einer Variable rank dargestellt werden. Ihr Ergebnis sollte so aussehen:

# A tibble: 5,307 × 5
   artist  track                   date.entered week   rank
   <chr>   <chr>                   <date>       <chr> <dbl>
 1 2 Pac   Baby Don't Cry (Keep... 2000-02-26   1        87
 2 2 Pac   Baby Don't Cry (Keep... 2000-02-26   2        82
 3 2 Pac   Baby Don't Cry (Keep... 2000-02-26   3        72
 4 2 Pac   Baby Don't Cry (Keep... 2000-02-26   4        77
 5 2 Pac   Baby Don't Cry (Keep... 2000-02-26   5        87
 6 2 Pac   Baby Don't Cry (Keep... 2000-02-26   6        94
 7 2 Pac   Baby Don't Cry (Keep... 2000-02-26   7        99
 8 2Ge+her The Hardest Part Of ... 2000-09-02   1        91
 9 2Ge+her The Hardest Part Of ... 2000-09-02   2        87
10 2Ge+her The Hardest Part Of ... 2000-09-02   3        92
# ℹ 5,297 more rows

7.4.2.2 who2

Betrachten Sie die Tabelle who2. Stellen Sie sich erneut die folgenden Fragen:

Welches Format hat die Tabelle? Ist sie weit oder lang?

Welche Prinzipien von tidy data werden (nicht) befolgt?

Nachdem wie in Erfahrung gebracht haben, wofür die Spaltennamen stehen7, verlängern Sie die Tabelle so, dass die einzelnen Informationen in drei verschiedene Variablen diagnosis, gender und age_group sowie die Fallzahlen in einer Variable count dargestellt werden. Ihr Ergebnis sollte so aussehen:

# A tibble: 405,440 × 6
   country      year diagnosis gender age_group count
   <chr>       <dbl> <chr>     <chr>  <chr>     <dbl>
 1 Afghanistan  1980 sp        m      014          NA
 2 Afghanistan  1980 sp        m      1524         NA
 3 Afghanistan  1980 sp        m      2534         NA
 4 Afghanistan  1980 sp        m      3544         NA
 5 Afghanistan  1980 sp        m      4554         NA
 6 Afghanistan  1980 sp        m      5564         NA
 7 Afghanistan  1980 sp        m      65           NA
 8 Afghanistan  1980 sp        f      014          NA
 9 Afghanistan  1980 sp        f      1524         NA
10 Afghanistan  1980 sp        f      2534         NA
# ℹ 405,430 more rows
…
Verlängern Sie diese Tabelle so, dass die Geschlechtsangabe und die Anzahl der Geburten in eigenen Variablen vorliegen. Ihr Ergebnis sollte so aussehen:

# A tibble: 33 × 3
    jahr geschlecht geburten
   <dbl> <chr>         <dbl>
 1  2013 insgesamt    109562
 2  2013 maennlich     55913
 3  2013 weiblich      53649
 4  2014 insgesamt    113935
 5  2014 maennlich     58695
 6  2014 weiblich      55240
 7  2015 insgesamt    118228
 8  2015 maennlich     60511
 9  2015 weiblich      57717
10  2016 insgesamt    125689
# ℹ 23 more rows

Diese Tabelle ist aufgeräumt, aber für manche Zwecke ungeeignet. Was, wenn wir den Anteil an Geburten je nach Geschlecht und Jahr berechnen wollen? Eine Möglichkeit, dies zu tun, wäre die folgende: Verlängern Sie geburten statt wie zuvor so, dass nur die Spalten geburten_maennlich und geburten_weiblich herangezogen werden. Die Spalten geburten_insgesamt soll hingegen erhalten bleiben. In einem weiteren Schritt nutzen Sie mutate(), um den jeweiligen Anteil zu berechnen. Ihr Ergebnis sollte so aussehen:

# A tibble: 22 × 5
    jahr geburten_insgesamt geschlecht geburten anteil
   <dbl>              <dbl> <chr>         <dbl>  <dbl>
 1  2013             109562 maennlich     55913   51  
 2  2013             109562 weiblich      53649   49  
 3  2014             113935 maennlich     58695   51.5
 4  2014             113935 weiblich      55240   48.5
 5  2015             118228 maennlich     60511   51.2
 6  2015             118228 weiblich      57717   48.8
 7  2016             125689 maennlich     64503   51.3
 8  2016             125689 weiblich      61186   48.7
 9  2017             126191 maennlich     64294   50.9
10  2017             126191 weiblich      61897   49.1
# ℹ 12 more rows
…
