8 Datenzusammenführung – Einführung in R
…
airports enthält acht Variablen: einen dreistelligen internationalen Code sowie den Namen und unterschiedliche geographische und zeitliche Informationen. Als Primärschlüssel bietet sich auch hier der Code (faa) an.

airports

# A tibble: 1,458 × 8
   faa   name                             lat    lon   alt    tz dst   tzone    
   <chr> <chr>                          <dbl>  <dbl> <dbl> <dbl> <chr> <chr>    
 1 04G   Lansdowne Airport               41.1  -80.6  1044    -5 A     America/…
 2 06A   Moton Field Municipal Airport   32.5  -85.7   264    -6 A     America/…
 3 06C   Schaumburg Regional             42.0  -88.1   801    -6 A     America/…
 4 06N   Randall Airport                 41.4  -74.4   523    -5 A     America/…
 5 09J   Jekyll Island Airport           31.1  -81.4    11    -5 A     America/…
 6 0A9   Elizabethton Municipal Airport  36.4  -82.2  1593    -5 A     America/…
 7 0G6   Williams County Airport         41.5  -84.5   730    -5 A     America/…
 8 0G7   Finger Lakes Regional Airport   42.9  -76.8   492    -5 A     America/…
 9 0P2   Shoestring Aviation Airfield    39.8  -76.6  1000    -5 U     America/…
10 0S9   Jefferson County Intl           48.1 -123.    108    -8 A     America/…
# ℹ 1,448 more rows

planes enthält neun Variablen: einen für jedes Flugzeug individuellen Code sowie unterschiedliche technische Informationen. Abermals ist der Code (tailnum) als Primärschlüssel besonders geeignet.

planes

# A tibble: 3,322 × 9
   tailnum  year type              manufacturer model engines seats speed engine
   <chr>   <int> <chr>             <chr>        <chr>   <int> <int> <int> <chr> 
 1 N10156   2004 Fixed wing multi… EMBRAER      EMB-…       2    55    NA Turbo…
 2 N102UW   1998 Fixed wing multi… AIRBUS INDU… A320…       2   182    NA Turbo…
 3 N103US   1999 Fixed wing multi… AIRBUS INDU… A320…       2   182    NA Turbo…
 4 N104UW   1999 Fixed wing multi… AIRBUS INDU… A320…       2   182    NA Turbo…
 5 N10575   2002 Fixed wing multi… EMBRAER      EMB-…       2    55    NA Turbo…
 6 N105UW   1999 Fixed wing multi… AIRBUS INDU… A320…       2   182    NA Turbo…
 7 N107US   1999 Fixed wing multi… AIRBUS INDU… A320…       2   182    NA Turbo…
 8 N108UW   1999 Fixed wing multi… AIRBUS INDU… A320…       2   182    NA Turbo…
 9 N109UW   1999 Fixed wing multi… AIRBUS INDU… A320…       2   182    NA Turbo…
10 N110UW   1999 Fixed wing multi… AIRBUS INDU… A320…       2   182    NA Turbo…
# ℹ 3,312 more rows
…
Die Logik eines left_join() (Wickham, Çetinkaya-Rundel, und Grolemund 2023, Kap. 19.4).

Nehmen wir als Beispiel an, wir würden die ausgeschriebenen Namen der Fluggesellschaften aus airlines unserer Tabelle flights2 (einer Auswahl von flights) hinzufügen wollen:

flights2 <- flights |> 
  select(time_hour, flight, origin, dest, carrier, tailnum) # Auswahl an Variablen treffen und einem Objekt namens flights2 zuschreiben
flights2

# A tibble: 336,776 × 6
   time_hour           flight origin dest  carrier tailnum
   <dttm>               <int> <chr>  <chr> <chr>   <chr>  
 1 2013-01-01 05:00:00   1545 EWR    IAH   UA      N14228 
 2 2013-01-01 05:00:00   1714 LGA    IAH   UA      N24211 
 3 2013-01-01 05:00:00   1141 JFK    MIA   AA      N619AA 
 4 2013-01-01 05:00:00    725 JFK    BQN   B6      N804JB 
 5 2013-01-01 06:00:00    461 LGA    ATL   DL      N668DN 
 6 2013-01-01 05:00:00   1696 EWR    ORD   UA      N39463 
 7 2013-01-01 06:00:00    507 EWR    FLL   B6      N516JB 
 8 2013-01-01 06:00:00   5708 LGA    IAD   EV      N829AS 
 9 2013-01-01 06:00:00     79 JFK    MCO   B6      N593JB 
10 2013-01-01 06:00:00    301 LGA    ORD   AA      N3ALAA 
# ℹ 336,766 more rows

Um dies zu tun, verbinden wir flights2 durch |> mit left_join(). Weil flights2 bereits als erster Parameter (also x) in left_join() eingeht, nimmt airlines die Rolle von y ein.

flights2 |> 
  left_join(airlines) # Left join durchführen

# A tibble: 336,776 × 7
   time_hour           flight origin dest  carrier tailnum name                 
   <dttm>               <int> <chr>  <chr> <chr>   <chr>   <chr>                
 1 2013-01-01 05:00:00   1545 EWR    IAH   UA      N14228  United Air Lines Inc.
 2 2013-01-01 05:00:00   1714 LGA    IAH   UA      N24211  United Air Lines Inc.
 3 2013-01-01 05:00:00   1141 JFK    MIA   AA      N619AA  American Airlines In…
 4 2013-01-01 05:00:00    725 JFK    BQN   B6      N804JB  JetBlue Airways      
 5 2013-01-01 06:00:00    461 LGA    ATL   DL      N668DN  Delta Air Lines Inc. 
 6 2013-01-01 05:00:00   1696 EWR    ORD   UA      N39463  United Air Lines Inc.
 7 2013-01-01 06:00:00    507 EWR    FLL   B6      N516JB  JetBlue Airways      
 8 2013-01-01 06:00:00   5708 LGA    IAD   EV      N829AS  ExpressJet Airlines …
 9 2013-01-01 06:00:00     79 JFK    MCO   B6      N593JB  JetBlue Airways      
10 2013-01-01 06:00:00    301 LGA    ORD   AA      N3ALAA  American Airlines In…
# ℹ 336,766 more rows

Das Ergebnis unseres joins sieht fast so aus wie flights2, aber nur fast. Tatsächlich wurde für jede Zeile aus flights2 auf Basis des Schlüsselfeldes carrier (wie aus der Meldung abzulesen ist) ein passender Wert aus der Spalte name, die sich in airlines findet, eingefügt. Unsere Ursprungstabelle hat also eine zusätzliche Spalte dazugewonnen. Die beiden Tabellen wurden erfolgreich zusammengeführt.

Explizite Angabe der Schlüsselfelder

Im bisherigen Beispiel left_join(flights2, airlines) hat R das geeignete Schlüsselfeld (carrier) selbst erkannt. Was aber, wenn R einmal nicht die richtigen Felder erkennt? Oder wenn die Schlüsselfelder zwar vorhanden sind, aber nicht dieselbe Bezeichnung tragen? In diesem Fall nutzen wir den Parameter by, um mit einem Vektor Schlüsselfelder explizit anzugeben3. Um das obige Ergebnis mit eigenen Einstellungen zu erzielen, würden wir unseren Code wie folgt ergänzen:

flights2 |> 
  left_join(airlines,
            by = "carrier") # Gleichnamiges Schlüsselfeld angeben

# A tibble: 336,776 × 7
   time_hour           flight origin dest  carrier tailnum name                 
   <dttm>               <int> <chr>  <chr> <chr>   <chr>   <chr>                
 1 2013-01-01 05:00:00   1545 EWR    IAH   UA      N14228  United Air Lines Inc.
 2 2013-01-01 05:00:00   1714 LGA    IAH   UA      N24211  United Air Lines Inc.
 3 2013-01-01 05:00:00   1141 JFK    MIA   AA      N619AA  American Airlines In…
 4 2013-01-01 05:00:00    725 JFK    BQN   B6      N804JB  JetBlue Airways      
 5 2013-01-01 06:00:00    461 LGA    ATL   DL      N668DN  Delta Air Lines Inc. 
 6 2013-01-01 05:00:00   1696 EWR    ORD   UA      N39463  United Air Lines Inc.
 7 2013-01-01 06:00:00    507 EWR    FLL   B6      N516JB  JetBlue Airways      
 8 2013-01-01 06:00:00   5708 LGA    IAD   EV      N829AS  ExpressJet Airlines …
 9 2013-01-01 06:00:00     79 JFK    MCO   B6      N593JB  JetBlue Airways      
10 2013-01-01 06:00:00    301 LGA    ORD   AA      N3ALAA  American Airlines In…
# ℹ 336,766 more rows

Wenn das Schlüsselfeld in x oder y einen anderen Namen hätte, würden wir diese Felder mithilfe von by “gleichsetzen”. In diesem Beispiel heißt das Schlüsselfeld in airlines CARRIER. Wenn wir einen left join ohne Nutzung von by probieren, erhalten wir eine Fehlermeldung.

flights2 |> 
  left_join(airlines |> 
              rename(CARRIER = carrier)) # Variable umbenennen

R warnt uns, weil es keinen gemeinsamen Schlüssel finden kann: Error in left_join(): ! by must be supplied when x and y have no common variables. Um diesen Fehler zu korrigieren, geben wir mit by = c("carrier" = "CARRIER") an, dass das Schlüsselfeld in den Tabellen jeweils anders benannt ist. Dann glückt der join ohne Probleme.

flights2 |> 
  left_join(airlines |> 
              rename(CARRIER = carrier),
            by = c("carrier" = "CARRIER")) # Ungleichnamige Schlüsselfelder angeben

# A tibble: 336,776 × 7
   time_hour           flight origin dest  carrier tailnum name                 
   <dttm>               <int> <chr>  <chr> <chr>   <chr>   <chr>                
 1 2013-01-01 05:00:00   1545 EWR    IAH   UA      N14228  United Air Lines Inc.
 2 2013-01-01 05:00:00   1714 LGA    IAH   UA      N24211  United Air Lines Inc.
 3 2013-01-01 05:00:00   1141 JFK    MIA   AA      N619AA  American Airlines In…
 4 2013-01-01 05:00:00    725 JFK    BQN   B6      N804JB  JetBlue Airways      
 5 2013-01-01 06:00:00    461 LGA    ATL   DL      N668DN  Delta Air Lines Inc. 
 6 2013-01-01 05:00:00   1696 EWR    ORD   UA      N39463  United Air Lines Inc.
 7 2013-01-01 06:00:00    507 EWR    FLL   B6      N516JB  JetBlue Airways      
 8 2013-01-01 06:00:00   5708 LGA    IAD   EV      N829AS  ExpressJet Airlines …
 9 2013-01-01 06:00:00     79 JFK    MCO   B6      N593JB  JetBlue Airways      
10 2013-01-01 06:00:00    301 LGA    ORD   AA      N3ALAA  American Airlines In…
# ℹ 336,766 more rows

Ein weiteres Beispiel festigt unser Verständnis. Zunächst erzeugen wir eine Auswahl an weather-Variablen.

weather2 <- weather |> 
  select(origin, time_hour, temp, wind_speed) # Vier Spalten auswählen
weather2

# A tibble: 26,115 × 4
   origin time_hour            temp wind_speed
   <chr>  <dttm>              <dbl>      <dbl>
 1 EWR    2013-01-01 01:00:00  39.0      10.4 
 2 EWR    2013-01-01 02:00:00  39.0       8.06
 3 EWR    2013-01-01 03:00:00  39.0      11.5 
 4 EWR    2013-01-01 04:00:00  39.9      12.7 
 5 EWR    2013-01-01 05:00:00  39.0      12.7 
 6 EWR    2013-01-01 06:00:00  37.9      11.5 
 7 EWR    2013-01-01 07:00:00  39.0      15.0 
 8 EWR    2013-01-01 08:00:00  39.9      10.4 
 9 EWR    2013-01-01 09:00:00  39.9      15.0 
10 EWR    2013-01-01 10:00:00  41        13.8 
# ℹ 26,105 more rows

Um mehr über die Wetterlage unserer Flüge bei Abflug zu erfahren, möchten wir flights2 jetzt durch alle Variablen in weather2 ergänzen. Zuvor entfernen wir dest aus flights2, damit uns klar ist, dass sich die Informationen auf den Abflugsflughafen, also origin beziehen. Diesmal erfolgt der left join, wie uns R mitteilt, auf Basis eines zusammengesetzten Schlüssels aus origin und time_hour. Der neue data frame hat durch die Zusammenführung zwei neue Spalten, nämlich temp und windspeed, hinzugewonnen, während alle Zeilen aus flights2 erhalten bleiben

flights2 |>
  select(- dest) |> # Spalte dest entfernen
  left_join(weather2) # Left join durchführen

# A tibble: 336,776 × 7
   time_hour           flight origin carrier tailnum  temp wind_speed
   <dttm>               <int> <chr>  <chr>   <chr>   <dbl>      <dbl>
 1 2013-01-01 05:00:00   1545 EWR    UA      N14228   39.0       12.7
 2 2013-01-01 05:00:00   1714 LGA    UA      N24211   39.9       15.0
 3 2013-01-01 05:00:00   1141 JFK    AA      N619AA   39.0       15.0
 4 2013-01-01 05:00:00    725 JFK    B6      N804JB   39.0       15.0
 5 2013-01-01 06:00:00    461 LGA    DL      N668DN   39.9       16.1
 6 2013-01-01 05:00:00   1696 EWR    UA      N39463   39.0       12.7
 7 2013-01-01 06:00:00    507 EWR    B6      N516JB   37.9       11.5
 8 2013-01-01 06:00:00   5708 LGA    EV      N829AS   39.9       16.1
 9 2013-01-01 06:00:00     79 JFK    B6      N593JB   37.9       13.8
10 2013-01-01 06:00:00    301 LGA    AA      N3ALAA   39.9       16.1
# ℹ 336,766 more rows
…
Die Logik eines right_join() (Wickham, Çetinkaya-Rundel, und Grolemund 2023, Kap. 19.4).

Um einen data frame mit denselben Informationen wie im vorherigen Beispiel von flights2 und weather2 zu erzeugen, würden wir also x und y einfach vertauschen. Das Ergebnis ist, bis auf die Reihenfolge der Spalten, gleich.

weather2 |> 
  right_join(flights2 |> # Right join durchführen
               select(- dest)) # Variable dest aus flights2 entfernen

# A tibble: 336,776 × 7
   origin time_hour            temp wind_speed flight carrier tailnum
   <chr>  <dttm>              <dbl>      <dbl>  <int> <chr>   <chr>  
 1 EWR    2013-01-01 05:00:00  39.0       12.7   1545 UA      N14228 
 2 EWR    2013-01-01 05:00:00  39.0       12.7   1696 UA      N39463 
 3 EWR    2013-01-01 06:00:00  37.9       11.5    507 B6      N516JB 
 4 EWR    2013-01-01 06:00:00  37.9       11.5   1124 UA      N53441 
 5 EWR    2013-01-01 06:00:00  37.9       11.5   1187 UA      N76515 
 6 EWR    2013-01-01 06:00:00  37.9       11.5    343 B6      N644JB 
 7 EWR    2013-01-01 06:00:00  37.9       11.5   1895 AA      N633AA 
 8 EWR    2013-01-01 06:00:00  37.9       11.5   1077 UA      N53442 
 9 EWR    2013-01-01 06:00:00  37.9       11.5   3768 MQ      N9EAMQ 
10 EWR    2013-01-01 06:00:00  37.9       11.5    575 DL      N326NB 
# ℹ 336,766 more rows
…
Die Logik eines full_join() (Wickham, Çetinkaya-Rundel, und Grolemund 2023, Kap. 19.4).

Wenn wir beispielsweise mittels slice_sample()4 zwei Stichproben von flights2 und weather2 mit je 1000 Beobachtungen erzeugen und full_join() zusammenfügen, hat die Ergebnistabelle nicht nur 1000 Beobachtungen (wie jeweils x und y haben), sondern mehr.5

set.seed(1234)
flights2_sample <- flights2 |> 
    slice_sample(n = 1000) # 1000 Fälle als Stichprobe ziehen
weather2_sample <- weather2 |> 
    slice_sample(n = 1000) # 1000 Fälle als Stichprobe ziehen

flights2_weather2_full_join <- flights2_sample |> 
    full_join(weather2_sample) # Full join durchführen
flights2_weather2_full_join

# A tibble: 1,968 × 8
   time_hour           flight origin dest  carrier tailnum  temp wind_speed
   <dttm>               <int> <chr>  <chr> <chr>   <chr>   <dbl>      <dbl>
 1 2013-06-17 10:00:00    244 EWR    LAS   UA      N447UA   NA         NA  
 2 2013-12-26 13:00:00   2455 LGA    MCO   DL      N373NW   NA         NA  
 3 2013-08-26 12:00:00   1623 EWR    SNA   UA      N38727   NA         NA  
 4 2013-08-17 16:00:00    543 EWR    PBI   B6      N558JB   NA         NA  
 5 2013-02-17 15:00:00   1753 EWR    CLT   US      <NA>     NA         NA  
 6 2013-06-30 09:00:00      5 EWR    FLL   B6      N807JB   NA         NA  
 7 2013-09-15 10:00:00   1131 LGA    DFW   AA      N3KMAA   NA         NA  
 8 2013-05-07 16:00:00   4411 EWR    MEM   EV      N14558   NA         NA  
 9 2013-03-14 06:00:00   1281 EWR    CLT   US      N169UW   NA         NA  
10 2013-09-04 07:00:00     11 JFK    SFO   VX      N846VA   69.1       13.8
# ℹ 1,958 more rows

Was ist passiert? Ein full join hat alle Beobachtungen aus x und y behalten. In 33 Fällen gab es übereinstimmende Beobachtungen in beiden Tabellen, sodass diese nicht als neue Beobachtungen angehängt wurden. Deshalb ist die Gesamtanzahl der Beobachtungen nicht gleich 2000 (= 1000 aus x + 1000 aus y), sondern etwas weniger, nämlich 1968.

8.3.1.4 Inner Join

Das Gegenstück zu einem full join ist ein inner join: ein solcher join erzeugt eine Tabelle, die ausschließlich solche Beobachtungen enthält, die sowohl in x als auch in y enthalten sind.

flights2_weather2_inner_join <- flights2_sample |> 
  inner_join(weather2_sample) # Inner join durchführen
flights2_weather2_inner_join

# A tibble: 33 × 8
   time_hour           flight origin dest  carrier tailnum  temp wind_speed
   <dttm>               <int> <chr>  <chr> <chr>   <chr>   <dbl>      <dbl>
 1 2013-09-04 07:00:00     11 JFK    SFO   VX      N846VA   69.1      13.8 
 2 2013-06-17 10:00:00   1847 LGA    ATL   DL      N915DE   81.0       5.75
 3 2013-11-04 14:00:00   3231 JFK    PIT   MQ      N638MQ   46.9       8.06
 4 2013-09-04 07:00:00     23 JFK    LAX   B6      N806JB   69.1      13.8 
 5 2013-11-03 10:00:00   1529 JFK    LAS   DL      N394DA   48.9      17.3 
 6 2013-04-13 16:00:00   4367 EWR    GSO   EV      N15912   59        13.8 
 7 2013-04-05 16:00:00   4299 EWR    DCA   EV      N13566   63.0      16.1 
 8 2013-07-31 11:00:00   3074 LGA    DEN   WN      N946WN   79.0       3.45
 9 2013-03-10 18:00:00   1973 EWR    CLT   US      N536UW   39.0       9.21
10 2013-02-14 13:00:00    117 JFK    LAX   AA      N335AA   44.1      12.7 
# ℹ 23 more rows
…
Die Logik eines semi_join() (Wickham, Çetinkaya-Rundel, und Grolemund 2023, Kap. 19.4).

Wir können uns dieses Vorgehen anhand von flights2_sample und weather2_sample gut verständlich machen. Möchten wir nur die Beobachtungen in flights2_sample ausgeben, für die in weather2_sample Wetterinformationen vorhanden sind, dabei aber keine Variablen in flights2_sample ergänzen, nutzen wir semi_join().

flights2_sample |> 
  semi_join(weather2_sample) # Semi join durchführen

# A tibble: 33 × 6
   time_hour           flight origin dest  carrier tailnum
   <dttm>               <int> <chr>  <chr> <chr>   <chr>  
 1 2013-09-04 07:00:00     11 JFK    SFO   VX      N846VA 
 2 2013-06-17 10:00:00   1847 LGA    ATL   DL      N915DE 
 3 2013-11-04 14:00:00   3231 JFK    PIT   MQ      N638MQ 
 4 2013-09-04 07:00:00     23 JFK    LAX   B6      N806JB 
 5 2013-11-03 10:00:00   1529 JFK    LAS   DL      N394DA 
 6 2013-04-13 16:00:00   4367 EWR    GSO   EV      N15912 
 7 2013-04-05 16:00:00   4299 EWR    DCA   EV      N13566 
 8 2013-07-31 11:00:00   3074 LGA    DEN   WN      N946WN 
 9 2013-03-10 18:00:00   1973 EWR    CLT   US      N536UW 
10 2013-02-14 13:00:00    117 JFK    LAX   AA      N335AA 
# ℹ 23 more rows
…
Die Logik eines anti_join() (Wickham, Çetinkaya-Rundel, und Grolemund 2023, Kap. 19.4).

Anhand von flights2_sample und weather2_sample werden also nur die Fälle in flights2_sample gefiltert, für die keine Wetterinformationen in weather2_sample vorliegen.

flights2_sample |> 
  anti_join(weather2_sample) # Anti join durchführen

# A tibble: 967 × 6
   time_hour           flight origin dest  carrier tailnum
   <dttm>               <int> <chr>  <chr> <chr>   <chr>  
 1 2013-06-17 10:00:00    244 EWR    LAS   UA      N447UA 
 2 2013-12-26 13:00:00   2455 LGA    MCO   DL      N373NW 
 3 2013-08-26 12:00:00   1623 EWR    SNA   UA      N38727 
 4 2013-08-17 16:00:00    543 EWR    PBI   B6      N558JB 
 5 2013-02-17 15:00:00   1753 EWR    CLT   US      <NA>   
 6 2013-06-30 09:00:00      5 EWR    FLL   B6      N807JB 
 7 2013-09-15 10:00:00   1131 LGA    DFW   AA      N3KMAA 
 8 2013-05-07 16:00:00   4411 EWR    MEM   EV      N14558 
 9 2013-03-14 06:00:00   1281 EWR    CLT   US      N169UW 
10 2013-07-31 08:00:00     15 JFK    SFO   B6      N536JB 
# ℹ 957 more rows
…
pilots: Angaben zu Piloten je nach Vehikel.

planets: Detaillierte Angaben zu Planeten.

species: Detallierte Angaben zu Spezien.

vehicles: Detaillierte Angaben zu Vehikeln.

In den folgenden Aufgaben werden mindestens zwei data frames zusammengeführt. Hierfür müssen wir zunächst passende Schlüsselfelder (Primär- und Fremdschlüssel) identifizieren. Wichtig ist, dass diese Schlüssel nicht immer dieselbe Bezeichnung tragen – anders als in den Erläuterungen oben. Bei den meisten joins müssen wir also by nutzen.

8.4.2 Left Join

Führen Sie films_planets und planets zusammen. Die Ergebnistabelle soll so aussehen:

# A tibble: 33 × 10
   title  planet rotation_period orbital_period diameter climate gravity terrain
   <chr>  <chr>            <dbl>          <dbl>    <dbl> <chr>   <chr>   <chr>  
 1 A New… Tatoo…              23            304    10465 arid    1 stan… desert 
 2 A New… Alder…              24            364    12500 temper… 1 stan… grassl…
 3 A New… Yavin…              24           4818    10200 temper… 1 stan… jungle…
 4 The E… Hoth                23            549     7200 frozen  1.1 st… tundra…
 5 The E… Dagob…              23            341     8900 murky   <NA>    swamp,…
 6 The E… Bespin              12           5110   118000 temper… 1.5 (s… gas gi…
 7 The E… Ord M…              26            334    14050 temper… 1 stan… plains…
 8 Retur… Tatoo…              23            304    10465 arid    1 stan… desert 
 9 Retur… Dagob…              23            341     8900 murky   <NA>    swamp,…
10 Retur… Endor               18            402     4900 temper… 0.85 s… forest…
# ℹ 23 more rows
# ℹ 2 more variables: surface_water <dbl>, population <dbl>
…
