9 Geodatenbearbeitung – Einführung in R
…
Mehrere Punkte in Form von MULTIPOINTs sind diese Punkte ausgewählter deutscher Großstädte namens de_cities.

de_cities

Simple feature collection with 38 features and 5 fields
Geometry type: POINT
Dimension:     XY
Bounding box:  xmin: 6.750017 ymin: 48.00042 xmax: 13.75 ymax: 54.33039
Geodetic CRS:  WGS 84
# A tibble: 38 × 6
   ISO   NAME_ENGLI NAME_LOCAL     id name                    geometry
   <chr> <chr>      <chr>       <int> <chr>                <POINT [°]>
 1 DEU   Germany    Deutschland    34 Bielefeld    (8.530011 52.02999)
 2 DEU   Germany    Deutschland    35 Dortmund     (7.450026 51.52997)
 3 DEU   Germany    Deutschland    36 Duisburg     (6.750017 51.42997)
 4 DEU   Germany    Deutschland    37 Wuppertal    (7.169991 51.25001)
 5 DEU   Germany    Deutschland    38 Essen           (7.016615 51.45)
 6 DEU   Germany    Deutschland    39 Karlsruhe    (8.399993 48.99999)
 7 DEU   Germany    Deutschland    40 Heidelberg   (8.699975 49.41999)
 8 DEU   Germany    Deutschland    41 Kassel        (9.50003 51.30001)
 9 DEU   Germany    Deutschland    42 Braunschweig (10.50002 52.24997)
10 DEU   Germany    Deutschland    43 Erfurt       (11.02996 50.97005)
# ℹ 28 more rows
…
Zuletzt können auch aus mehreren Linien zusammengesetzte MULTILINESTRINGs wie im Falle von de_roads, einer Auswahl Deutschlands größter Straßen, genutzt werden.

de_roads

Simple feature collection with 236 features and 4 fields
Geometry type: MULTILINESTRING
Dimension:     XY
Bounding box:  xmin: 6.038422 ymin: 47.52434 xmax: 15.0042 ymax: 54.80847
Geodetic CRS:  WGS 84
# A tibble: 236 × 5
   ISO   NAME_ENGLI NAME_LOCAL     id                                   geometry
   <chr> <chr>      <chr>       <int>                      <MULTILINESTRING [°]>
 1 DEU   Germany    Deutschland     1 ((8.314632 49.55083, 8.31425 49.55882, 8.…
 2 DEU   Germany    Deutschland     2 ((8.112538 49.77114, 7.920488 49.91664, 7…
 3 DEU   Germany    Deutschland     8 ((7.183644 51.57783, 7.194745 51.56005, 7…
 4 DEU   Germany    Deutschland    16 ((11.92062 51.01234, 11.87204 50.98965, 1…
 5 DEU   Germany    Deutschland    18 ((10.0788 50.04066, 10.07396 50.02253, 10…
 6 DEU   Germany    Deutschland    24 ((8.381551 50.63635, 8.395668 50.62364, 8…
 7 DEU   Germany    Deutschland    30 ((6.229168 50.85613, 6.2106 50.8549, 6.17…
 8 DEU   Germany    Deutschland   197 ((7.972146 48.57516, 7.890025 48.45277, 7…
 9 DEU   Germany    Deutschland   198 ((7.789707 48.01558, 7.768476 48.00029, 7…
10 DEU   Germany    Deutschland   210 ((7.953622 47.55946, 7.911486 47.56053), …
# ℹ 226 more rows
…
